{
  "id": "class-region-sheet",
  "title": "Class/Region Sheet",
  "pivotConfig": {
    "axis": {
      "z": [],
      "x": [
        {
          "qualifiedName": "-:Measures"
        }
      ],
      "y": []
    }
  },
  "views": {
    "grid": {
      "config": {},
      "module": "PivotGrid"
    },
    "configMenu": {
      "module": "ConfigMenu"
    },
    "slices": {
      "module": "Slices"
    },
    "columns": {
      "module": "Columns"
    },
    "rows": {
      "module": "Rows"
    },
    "measures": {
      "module": "Measures"
    }
  },
  "module": "SheetView",
  "layout": {
    "showSheetHeader": true
  }
}
