Hierarchy,Dimension,IsDefault,FromLevel,ToLevel,Index,HasFirst,HasLast
Default,Location,true,Cluster,Channel,0,true,true
Default,Concept,true,Concept,FabricWeight,0,true,true
SilhouetteHier,Concept,false,Concept,Silhouette,0,true,true
SleeveLengthHier,Concept,false,Concept,SleeveLength,0,true,true
MaterialCategoryHier,Concept,false,Concept,MaterialCategory,0,true,true
FashionIntentHier,Concept,false,Concept,FashionIntent,0,true,true
ItemTypeHier,Concept,false,Concept,ItemType,0,true,true
PresentationHier,Concept,false,Concept,Presentation,0,true,true
FixtureTypeHier,Concept,false,Concept,FixtureType,0,true,true
DesignPathHier,Concept,false,Concept,DesignPath,0,true,true
StartDateHier,Concept,false,Concept,StartDate,0,true,true
MarkdownDateHier,Concept,false,Concept,MarkdownDate,0,true,true
Default,Product,true,StyleColor,Style,0,true,true
Default,Product,true,Style,SubClass,1,true,true
Default,Product,true,SubClass,Class,2,true,true
Default,Product,true,Class,Department,3,true,
PriceCategoryHier,Product,false,StyleColor,Style,0,false,false
PriceCategoryHier,Product,false,Style,PriceCategory,1,false,false
SilhouettePHier,Product,false,StyleColor,Style,0,false,false
SilhouettePHier,Product,false,Style,SilhouetteP,1,false,false
Default,Time,true,Week,Month,0,true,true
Default,Time,true,Month,Quarter,1,true,true
Default,Time,true,Quarter,Season,2,true,true
Default,Time,true,Season,Year,3,true,true
