{
  "id": "breadth-view-sheet",
  "title": "Assortment Breadth",
  "pivotConfig": {
    "axis": {
      "y": [
        {
          "qualifiedName": "Location:Cluster"
        }
      ],
      "x": [
        {
          "qualifiedName": "-:Measures"
        }
      ],
      "z": [
        {
          "qualifiedName": "TtlSales_R_MFP_PL_AP"
        },
        {
          "qualifiedName": "TtlSales_R_LY_PL_AP"
        },
        {
          "qualifiedName": "TtlSales_P_MFPvarLY_PL_AP"
        },
        {
          "qualifiedName": "RosPerStorePerStyleColor_U_LY_PL_AP"
        },
        {
          "qualifiedName": "ROSLift_P_WP_PL_AP"
        },
        {
          "qualifiedName": "StoreCount_U_WP_PL_AP"
        },
        {
          "qualifiedName": "StyleColorCountCalculated_U_WP_PL_AP"
        }
      ],
      "slice": [
        {
          "qualifiedName": "Time:Season"
        }
      ]
    }
  },
  "gridOptions": {
    "display": {
      "-:Measures": {
        "height": 50,
        "members": {
          "RosPerStorePerStyleColor_U_LY_PL_AP": {
            "width": 120
          },
          "StyleColorCountCalculated_U_WP_PL_AP": {
            "width": 120
          }
        }
      },
      "Location:Cluster": {
        "width": 80
      }
    }
  },
  "views": {
    "rows": {
      "module": "Rows"
    },
    "columns": {
      "module": "Columns"
    },
    "measures": {
      "module": "Measures"
    },
    "slices": {
      "module": "Slices"
    },
    "grid": {
      "module": "PivotGrid"
    }
  },
  "module": "SheetView"
}
