{
  "id": "concept-library-sheet",
  "title": "Concept Library",
  "pivotConfig": {
    "axis": {
      "y": [
        {
          "qualifiedName": "-:Measures"
        }
      ],
      "x": [
        {
          "qualifiedName": "Concept:Concept"
        }
      ],
      "z": [
        {
          "qualifiedName": "DeleteConcept_B_WP_DE_AP"
        },
        {
          "qualifiedName": "ConceptImage_S_WP_DE_AP"
        },
        {
          "qualifiedName": "ConceptPriceCategory_S_WP_DE_AP"
        },

        {
          "qualifiedName": "ConceptFabricWeight_S_WP_DE_AP"
        },
        {
          "qualifiedName": "ConceptSilhouette_S_WP_DE_AP"
        },
        {
          "qualifiedName": "ConceptSleeveLength_S_WP_DE_AP"
        },
        {
          "qualifiedName": "ConceptMaterialCategory_S_WP_DE_AP"
        },

        {
          "qualifiedName": "ConceptFashionIntent_S_WP_DE_AP"
        },

        {
          "qualifiedName": "ConceptItemType_S_WP_DE_AP"
        },

        {
          "qualifiedName": "ConceptPresentation_S_WP_DE_AP"
        },

        {
          "qualifiedName": "ConceptFixtureType_S_WP_DE_AP"
        },

        {
          "qualifiedName": "ConceptDesignPath_S_WP_DE_AP"
        }
      ],
      "slice": []
    }
  },
  "gridOptions": {
    "display": {
      "-:Measures": {
        "width": 200,
        "members": {
          "ConceptImage_S_WP_DE_AP": {
            "height": 200
          }
        }
      },
      "Concept:Concept": {
        "width": 150
      }
    }
  },
  "views": {
    "rows": {
      "module": "Rows"
    },
    "columns": {
      "module": "Columns"
    },
    "measures": {
      "module": "Measures"
    },
    "slices": {
      "module": "Slices"
    },
    "grid": {
      "module": "PivotGrid"
    }
  },
  "module": "SheetView"
}
