{
  "id": "create-definite-product-sheet",
  "title": "Create Definite Product",
  "pivotConfig": {
    "axis": {
      "y": [
        {
          "qualifiedName": "-:Measures"
        }
      ],
      "x": [
        {
          "qualifiedName": "Concept:Concept"
        }
      ],
      "z": [
        {
          "qualifiedName": "ConceptToProduct_B_WP_PL_AP"
        },
        {
          "qualifiedName": "ConceptImage_S_WP_DE_AP"
        },
        {
          "qualifiedName": "ConceptStartDate_S_WP_PL_AP"
        },

        {
          "qualifiedName": "ConceptMarkdownDate_S_WP_PL_AP"
        },

        {
          "qualifiedName": "ConceptStyle_S_WP_DE_AP"
        },

        {
          "qualifiedName": "ConceptSubclass_S_WP_DE_AP"
        },

        {
          "qualifiedName": "ConceptClass_S_WP_DE_AP"
        },

        {
          "qualifiedName": "ConceptDepartment_S_WP_DE_AP"
        }
      ],
      "slice": []
    }
  },
  "gridOptions": {
    "display": {
      "-:Measures": {
        "width": 200,
        "members": {
          "ConceptImage_S_WP_DE_AP": {
            "height": 200
          }
        }
      },
      "Concept:Concept": {
        "width": 150
      }
    }
  },
  "views": {
    "rows": {
      "module": "Columns"
    },
    "columns": {
      "module": "Rows"
    },
    "measures": {
      "module": "Measures"
    },
    "slices": {
      "module": "Slices"
    },
    "grid": {
      "module": "PivotGrid"
    }
  },
  "module": "SheetView"
}
