{
  "id": "definite-products-sheet",
  "title": "Definite Products",
  "pivotConfig": {
    "axis": {
      "y": [
        {
          "qualifiedName": "-:Measures"
        }
      ],
      "x": [
        {
          "qualifiedName": "Product:StyleColor"
        }
      ],
      "z": [
        {
          "qualifiedName": "ProductToConcept_B_WP_PL_AP"
        },
        {
          "qualifiedName": "StyleColorImage_S_WP_PL_AP"
        },
        {
          "qualifiedName": "StyleColorDescription_S_WP_PL_AP"
        }
      ],
      "slice": []
    }
  },
  "gridOptions": {
    "display": {
      "-:Measures": {
        "width": 200,
        "members": {
          "StyleColorImage_S_WP_PL_AP": {
            "height": 200
          }
        }
      },
      "Product:StyleColor": {
        "width": 150
      }
    }
  },
  "views": {
    "rows": {
      "module": "Rows"
    },
    "columns": {
      "module": "Columns"
    },
    "measures": {
      "module": "Measures"
    },
    "slices": {
      "module": "Slices"
    },
    "grid": {
      "module": "PivotGrid"
    }
  },
  "module": "SheetView"
}
