{
  "id": "depth-view-sheet",
  "title": "Assortment Depth",
  "pivotConfig": {
    "axis": {
      "y": [
        {
          "qualifiedName": "Product:PriceCategory"
        }
      ],
      "x": [
        {
          "qualifiedName": "-:Measures"
        }
      ],
      "z": [
        {
          "qualifiedName": "StyleColorCount_U_WP_PL_AP"
        },
        {
          "qualifiedName": "TtlSales_R_LY_PL_AP"
        },
        {
          "qualifiedName": "TtlSales_R_WP_PL_AP"
        },
        {
          "qualifiedName": "TtlSalesContrib_P_WP_PL_AP"
        }
      ],
      "slice": []
    }
  },
  "gridOptions": {
    "display": {
      "-:Measures": {
        "height": 50,
        "members": {
          "StyleColorCount_U_WP_PL_AP": {
            "width": 120
          },
          "TtlSalesContrib_P_WP_PL_AP": {
            "width": 160
          }
        }
      },
      "Location:Cluster": {
        "width": 80
      }
    }
  },
  "views": {
    "rows": {
      "module": "Rows"
    },
    "columns": {
      "module": "Columns"
    },
    "measures": {
      "module": "Measures"
    },
    "slices": {
      "module": "Slices"
    },
    "grid": {
      "module": "PivotGrid"
    }
  },
  "module": "SheetView"
}
