{
    "id": "partitioned_by_class",
    "nodes": [
        {
            "properties": [
                {
                    "key": "caption",
                    "value": "Workbooks"
                }
            ],
            "children": [
                {
                    "id": "class-region-sheet-canvas",
                    "properties": [
                        {
                            "key": "type",
                            "value": "canvas"
                        },
                        {
                            "key": "caption",
                            "value": "Class/Region Canvas"
                        }
                    ]
                }
            ]
        }     
    ]    
}