{
  "id": "concept-library-canvas",
  "views": {
    "action-buttons": {
      "module": "ActionButtons",
      "config": {
        "buttons": [
          {
            "actionId": "create-concept",
            "label": "Create Concept"
          },
          {
            "actionId": "delete-concept",
            "label": "Delete Concept"
          }
        ]
      }
    },
    "concept-library-sheet": {
      "module": "SheetView"
    },
    "create-concept-sheet": {
      "module": "SheetView"
    }
  },
  "tileLayout": {
    "direction": "column",
    "panes": [
      {
        "id": "action-buttons",
        "size": "40px"
      },
      {
        "id": "create-concept-sheet"
      },
      {
        "id": "concept-library-sheet"
      }
    ]
  },
  "module": "CanvasView"
}
