{
  "checkout_method": "CLONE",
  "name": "unpartitioned",
  "parent_workbook": {
    "clone_branch_name": "__workbook_base_branch",
    "workspace_name": "/modeler-now"
  },
  "position_access_templates": {
    "position_access": []
  }
}